<mxfile host="app.diagrams.net" modified="2021-04-27T12:54:25.694Z" agent="5.0 (X11; Linux x86_64) AppleWebKit/537.36 (KHTML, like Gecko) Chrome/88.0.4324.182 Safari/537.36" etag="g0MJwfAkbc_G4-bTHg5r" version="14.6.6" type="gitlab">
  <diagram id="o0UfjyiXXGn6HaKcB76w" name="Page-1">
    <mxGraphModel dx="1422" dy="721" grid="0" gridSize="10" guides="1" tooltips="1" connect="1" arrows="1" fold="1" page="1" pageScale="1" pageWidth="827" pageHeight="1169" math="0" shadow="0">
      <root>
        <mxCell id="0" />
        <mxCell id="1" parent="0" />
        <mxCell id="YmrxUj34CqToYlzWAYfw-3" style="edgeStyle=orthogonalEdgeStyle;rounded=0;orthogonalLoop=1;jettySize=auto;html=1;exitX=1;exitY=0.5;exitDx=0;exitDy=0;" edge="1" parent="1" source="YmrxUj34CqToYlzWAYfw-1" target="YmrxUj34CqToYlzWAYfw-2">
          <mxGeometry relative="1" as="geometry" />
        </mxCell>
        <mxCell id="YmrxUj34CqToYlzWAYfw-1" value="选择分支" style="rounded=0;whiteSpace=wrap;html=1;fillColor=#dae8fc;strokeColor=#6c8ebf;" vertex="1" parent="1">
          <mxGeometry x="140" y="60" width="100" height="40" as="geometry" />
        </mxCell>
        <mxCell id="YmrxUj34CqToYlzWAYfw-37" style="edgeStyle=orthogonalEdgeStyle;shape=link;rounded=0;orthogonalLoop=1;jettySize=auto;html=1;exitX=1;exitY=0.5;exitDx=0;exitDy=0;dashed=1;" edge="1" parent="1" source="YmrxUj34CqToYlzWAYfw-2" target="YmrxUj34CqToYlzWAYfw-5">
          <mxGeometry relative="1" as="geometry" />
        </mxCell>
        <mxCell id="YmrxUj34CqToYlzWAYfw-2" value="主题（测试）" style="rounded=0;whiteSpace=wrap;html=1;fillColor=#d5e8d4;strokeColor=#82b366;" vertex="1" parent="1">
          <mxGeometry x="370" y="60" width="120" height="40" as="geometry" />
        </mxCell>
        <mxCell id="YmrxUj34CqToYlzWAYfw-6" style="edgeStyle=orthogonalEdgeStyle;rounded=0;orthogonalLoop=1;jettySize=auto;html=1;exitX=1;exitY=0.5;exitDx=0;exitDy=0;entryX=0;entryY=0.5;entryDx=0;entryDy=0;entryPerimeter=0;" edge="1" parent="1" source="YmrxUj34CqToYlzWAYfw-4" target="YmrxUj34CqToYlzWAYfw-5">
          <mxGeometry relative="1" as="geometry" />
        </mxCell>
        <mxCell id="YmrxUj34CqToYlzWAYfw-30" style="edgeStyle=orthogonalEdgeStyle;rounded=0;orthogonalLoop=1;jettySize=auto;html=1;dashed=1;" edge="1" parent="1" source="YmrxUj34CqToYlzWAYfw-4">
          <mxGeometry relative="1" as="geometry">
            <mxPoint x="110" y="350" as="targetPoint" />
          </mxGeometry>
        </mxCell>
        <mxCell id="YmrxUj34CqToYlzWAYfw-4" value="suttle (pbuilder)" style="rounded=1;whiteSpace=wrap;html=1;" vertex="1" parent="1">
          <mxGeometry x="363" y="560" width="120" height="60" as="geometry" />
        </mxCell>
        <mxCell id="YmrxUj34CqToYlzWAYfw-5" value="deb包仓库" style="shape=cylinder3;whiteSpace=wrap;html=1;boundedLbl=1;backgroundOutline=1;size=15;fillColor=#f8cecc;strokeColor=#b85450;" vertex="1" parent="1">
          <mxGeometry x="660" y="450" width="106" height="80" as="geometry" />
        </mxCell>
        <mxCell id="YmrxUj34CqToYlzWAYfw-7" value="构建完成" style="text;html=1;strokeColor=none;fillColor=none;align=center;verticalAlign=middle;whiteSpace=wrap;rounded=0;" vertex="1" parent="1">
          <mxGeometry x="433" y="650" width="50" height="20" as="geometry" />
        </mxCell>
        <mxCell id="YmrxUj34CqToYlzWAYfw-15" value="" style="edgeStyle=orthogonalEdgeStyle;rounded=0;orthogonalLoop=1;jettySize=auto;html=1;" edge="1" parent="1" source="YmrxUj34CqToYlzWAYfw-9" target="YmrxUj34CqToYlzWAYfw-14">
          <mxGeometry relative="1" as="geometry" />
        </mxCell>
        <mxCell id="YmrxUj34CqToYlzWAYfw-36" style="edgeStyle=orthogonalEdgeStyle;rounded=0;orthogonalLoop=1;jettySize=auto;html=1;entryX=0.5;entryY=1;entryDx=0;entryDy=0;entryPerimeter=0;dashed=1;" edge="1" parent="1" source="YmrxUj34CqToYlzWAYfw-9" target="YmrxUj34CqToYlzWAYfw-35">
          <mxGeometry relative="1" as="geometry" />
        </mxCell>
        <mxCell id="YmrxUj34CqToYlzWAYfw-9" value="选择项目" style="rounded=0;whiteSpace=wrap;html=1;fillColor=#dae8fc;strokeColor=#6c8ebf;" vertex="1" parent="1">
          <mxGeometry x="140" y="260" width="100" height="40" as="geometry" />
        </mxCell>
        <mxCell id="YmrxUj34CqToYlzWAYfw-10" value="研发" style="shape=umlActor;verticalLabelPosition=bottom;verticalAlign=top;html=1;outlineConnect=0;" vertex="1" parent="1">
          <mxGeometry x="100" y="250" width="30" height="60" as="geometry" />
        </mxCell>
        <mxCell id="YmrxUj34CqToYlzWAYfw-11" value="管理员" style="shape=umlActor;verticalLabelPosition=bottom;verticalAlign=top;html=1;outlineConnect=0;" vertex="1" parent="1">
          <mxGeometry x="100" y="50" width="30" height="60" as="geometry" />
        </mxCell>
        <mxCell id="YmrxUj34CqToYlzWAYfw-16" value="" style="edgeStyle=orthogonalEdgeStyle;rounded=0;orthogonalLoop=1;jettySize=auto;html=1;dashed=1;dashPattern=1 1;" edge="1" parent="1" source="YmrxUj34CqToYlzWAYfw-14" target="YmrxUj34CqToYlzWAYfw-2">
          <mxGeometry relative="1" as="geometry" />
        </mxCell>
        <mxCell id="YmrxUj34CqToYlzWAYfw-19" style="edgeStyle=orthogonalEdgeStyle;rounded=0;orthogonalLoop=1;jettySize=auto;html=1;entryX=0;entryY=0.5;entryDx=0;entryDy=0;dashed=1;dashPattern=1 1;" edge="1" parent="1" source="YmrxUj34CqToYlzWAYfw-14" target="YmrxUj34CqToYlzWAYfw-18">
          <mxGeometry relative="1" as="geometry" />
        </mxCell>
        <mxCell id="YmrxUj34CqToYlzWAYfw-20" style="edgeStyle=orthogonalEdgeStyle;rounded=0;orthogonalLoop=1;jettySize=auto;html=1;exitX=0.25;exitY=0;exitDx=0;exitDy=0;dashed=1;dashPattern=1 1;entryX=0.777;entryY=1.017;entryDx=0;entryDy=0;entryPerimeter=0;" edge="1" parent="1" source="YmrxUj34CqToYlzWAYfw-14" target="YmrxUj34CqToYlzWAYfw-35">
          <mxGeometry relative="1" as="geometry" />
        </mxCell>
        <mxCell id="YmrxUj34CqToYlzWAYfw-23" style="edgeStyle=orthogonalEdgeStyle;rounded=0;orthogonalLoop=1;jettySize=auto;html=1;exitX=0.5;exitY=1;exitDx=0;exitDy=0;shape=flexArrow;" edge="1" parent="1" source="YmrxUj34CqToYlzWAYfw-14" target="YmrxUj34CqToYlzWAYfw-22">
          <mxGeometry relative="1" as="geometry" />
        </mxCell>
        <mxCell id="YmrxUj34CqToYlzWAYfw-14" value="更新项目" style="whiteSpace=wrap;html=1;rounded=0;fillColor=#ffe6cc;strokeColor=#d79b00;" vertex="1" parent="1">
          <mxGeometry x="370" y="262.5" width="120" height="35" as="geometry" />
        </mxCell>
        <mxCell id="YmrxUj34CqToYlzWAYfw-17" value="选择" style="text;html=1;strokeColor=none;fillColor=none;align=center;verticalAlign=middle;whiteSpace=wrap;rounded=0;" vertex="1" parent="1">
          <mxGeometry x="449" y="200" width="40" height="20" as="geometry" />
        </mxCell>
        <mxCell id="YmrxUj34CqToYlzWAYfw-18" value="架构（x86 arm 等 ）" style="rounded=1;whiteSpace=wrap;html=1;fillColor=#d5e8d4;strokeColor=#82b366;" vertex="1" parent="1">
          <mxGeometry x="550" y="250" width="120" height="60" as="geometry" />
        </mxCell>
        <mxCell id="YmrxUj34CqToYlzWAYfw-21" value="选择代码分支" style="text;html=1;strokeColor=none;fillColor=none;align=center;verticalAlign=middle;whiteSpace=wrap;rounded=0;" vertex="1" parent="1">
          <mxGeometry x="308" y="210" width="100" height="20" as="geometry" />
        </mxCell>
        <mxCell id="YmrxUj34CqToYlzWAYfw-24" style="edgeStyle=orthogonalEdgeStyle;shape=flexArrow;rounded=0;orthogonalLoop=1;jettySize=auto;html=1;exitX=0.5;exitY=1;exitDx=0;exitDy=0;entryX=0.558;entryY=0;entryDx=0;entryDy=0;entryPerimeter=0;" edge="1" parent="1" source="YmrxUj34CqToYlzWAYfw-22" target="YmrxUj34CqToYlzWAYfw-4">
          <mxGeometry relative="1" as="geometry" />
        </mxCell>
        <mxCell id="YmrxUj34CqToYlzWAYfw-22" value="CRP 后端" style="rounded=1;whiteSpace=wrap;html=1;" vertex="1" parent="1">
          <mxGeometry x="370" y="390" width="120" height="60" as="geometry" />
        </mxCell>
        <mxCell id="YmrxUj34CqToYlzWAYfw-25" value="创建独立的构建环境" style="text;html=1;strokeColor=none;fillColor=none;align=center;verticalAlign=middle;whiteSpace=wrap;rounded=0;" vertex="1" parent="1">
          <mxGeometry x="300" y="510" width="40" height="20" as="geometry" />
        </mxCell>
        <mxCell id="YmrxUj34CqToYlzWAYfw-29" style="edgeStyle=orthogonalEdgeStyle;rounded=0;orthogonalLoop=1;jettySize=auto;html=1;entryX=0.5;entryY=1;entryDx=0;entryDy=0;dashed=1;exitX=0.006;exitY=0.729;exitDx=0;exitDy=0;exitPerimeter=0;shape=link;" edge="1" parent="1" source="YmrxUj34CqToYlzWAYfw-28" target="YmrxUj34CqToYlzWAYfw-4">
          <mxGeometry relative="1" as="geometry">
            <mxPoint x="545" y="745" as="sourcePoint" />
          </mxGeometry>
        </mxCell>
        <mxCell id="YmrxUj34CqToYlzWAYfw-28" value="每次提交都会创建独立的构建环境，构建环境创建的时候，会到仓库中找对应的依赖，安装，最后，构建提交的包。构建完成后，这个环境会释放　" style="shape=note;whiteSpace=wrap;html=1;backgroundOutline=1;darkOpacity=0.05;fillColor=#fff2cc;strokeColor=#d6b656;" vertex="1" parent="1">
          <mxGeometry x="620" y="580" width="170" height="140" as="geometry" />
        </mxCell>
        <mxCell id="YmrxUj34CqToYlzWAYfw-31" value="返回结果" style="text;html=1;strokeColor=none;fillColor=none;align=center;verticalAlign=middle;whiteSpace=wrap;rounded=0;" vertex="1" parent="1">
          <mxGeometry x="280" y="590" width="50" height="20" as="geometry" />
        </mxCell>
        <mxCell id="YmrxUj34CqToYlzWAYfw-32" value="创建" style="text;html=1;strokeColor=none;fillColor=none;align=center;verticalAlign=middle;whiteSpace=wrap;rounded=0;" vertex="1" parent="1">
          <mxGeometry x="260" y="60" width="40" height="20" as="geometry" />
        </mxCell>
        <mxCell id="YmrxUj34CqToYlzWAYfw-33" value="选择" style="text;html=1;strokeColor=none;fillColor=none;align=center;verticalAlign=middle;whiteSpace=wrap;rounded=0;" vertex="1" parent="1">
          <mxGeometry x="490" y="262.5" width="40" height="20" as="geometry" />
        </mxCell>
        <mxCell id="YmrxUj34CqToYlzWAYfw-34" value="构建好的包" style="text;html=1;strokeColor=none;fillColor=none;align=center;verticalAlign=middle;whiteSpace=wrap;rounded=0;" vertex="1" parent="1">
          <mxGeometry x="570" y="460" width="80" height="20" as="geometry" />
        </mxCell>
        <mxCell id="YmrxUj34CqToYlzWAYfw-35" value="代码仓库(gerrit)" style="shape=cylinder3;whiteSpace=wrap;html=1;boundedLbl=1;backgroundOutline=1;size=15;fillColor=#e1d5e7;strokeColor=#9673a6;" vertex="1" parent="1">
          <mxGeometry x="190" y="140" width="130" height="60" as="geometry" />
        </mxCell>
      </root>
    </mxGraphModel>
  </diagram>
</mxfile>
