<mxfile host="app.diagrams.net" modified="2021-08-03T08:45:07.505Z" agent="5.0 (X11; Linux x86_64) AppleWebKit/537.36 (KHTML, like Gecko) Chrome/90.0.4430.212 Safari/537.36" etag="YtyfZeNErRuXc5wQAl8S" version="14.8.6" type="gitlab">
  <diagram name="Page-1" id="929967ad-93f9-6ef4-fab6-5d389245f69c">
    <mxGraphModel dx="1422" dy="693" grid="1" gridSize="10" guides="1" tooltips="1" connect="1" arrows="1" fold="1" page="1" pageScale="1.5" pageWidth="1169" pageHeight="826" background="none" math="0" shadow="0">
      <root>
        <mxCell id="0" style=";html=1;" />
        <mxCell id="1" style=";html=1;" parent="0" />
        <mxCell id="1672d66443f91eb5-2" value="" style="shape=folder;tabWidth=80;tabHeight=20;tabPosition=left;strokeWidth=1;html=1;whiteSpace=wrap;align=center;fontSize=12;fontStyle=1" parent="1" vertex="1">
          <mxGeometry x="23" y="21" width="567" height="90" as="geometry" />
        </mxCell>
        <mxCell id="Ttf8qvgU39DzpJZI9pNk-2" value="" style="shape=folder;tabWidth=80;tabHeight=20;tabPosition=left;strokeWidth=1;html=1;whiteSpace=wrap;align=center;fontSize=12;fontStyle=1" parent="1" vertex="1">
          <mxGeometry x="23" y="161" width="567" height="205" as="geometry" />
        </mxCell>
        <mxCell id="Ttf8qvgU39DzpJZI9pNk-26" style="edgeStyle=orthogonalEdgeStyle;rounded=0;orthogonalLoop=1;jettySize=auto;html=1;exitX=0.25;exitY=1;exitDx=0;exitDy=0;entryX=0.104;entryY=0.05;entryDx=0;entryDy=0;entryPerimeter=0;" parent="1" source="Ttf8qvgU39DzpJZI9pNk-3" target="Ttf8qvgU39DzpJZI9pNk-7" edge="1">
          <mxGeometry relative="1" as="geometry" />
        </mxCell>
        <mxCell id="Ttf8qvgU39DzpJZI9pNk-3" value="wayland client" style="rounded=0;whiteSpace=wrap;html=1;" parent="1" vertex="1">
          <mxGeometry x="83" y="61" width="130" height="30" as="geometry" />
        </mxCell>
        <mxCell id="Ttf8qvgU39DzpJZI9pNk-10" style="edgeStyle=orthogonalEdgeStyle;rounded=0;orthogonalLoop=1;jettySize=auto;html=1;exitX=0.5;exitY=1;exitDx=0;exitDy=0;entryX=0.5;entryY=0;entryDx=0;entryDy=0;" parent="1" source="Ttf8qvgU39DzpJZI9pNk-4" target="Ttf8qvgU39DzpJZI9pNk-8" edge="1">
          <mxGeometry relative="1" as="geometry" />
        </mxCell>
        <mxCell id="Ttf8qvgU39DzpJZI9pNk-4" value="x11 client&amp;nbsp;" style="rounded=0;whiteSpace=wrap;html=1;" parent="1" vertex="1">
          <mxGeometry x="420" y="61" width="130" height="30" as="geometry" />
        </mxCell>
        <mxCell id="Ttf8qvgU39DzpJZI9pNk-5" value="应用层" style="text;html=1;strokeColor=none;fillColor=none;align=center;verticalAlign=middle;whiteSpace=wrap;rounded=0;" parent="1" vertex="1">
          <mxGeometry x="43" y="21" width="40" height="20" as="geometry" />
        </mxCell>
        <mxCell id="Ttf8qvgU39DzpJZI9pNk-6" value="逻辑层" style="text;html=1;strokeColor=none;fillColor=none;align=center;verticalAlign=middle;whiteSpace=wrap;rounded=0;" parent="1" vertex="1">
          <mxGeometry x="43" y="161" width="40" height="20" as="geometry" />
        </mxCell>
        <mxCell id="Ttf8qvgU39DzpJZI9pNk-28" style="edgeStyle=orthogonalEdgeStyle;rounded=0;orthogonalLoop=1;jettySize=auto;html=1;exitX=0.237;exitY=-0.075;exitDx=0;exitDy=0;entryX=0.75;entryY=1;entryDx=0;entryDy=0;exitPerimeter=0;" parent="1" source="Ttf8qvgU39DzpJZI9pNk-7" target="Ttf8qvgU39DzpJZI9pNk-3" edge="1">
          <mxGeometry relative="1" as="geometry" />
        </mxCell>
        <mxCell id="Ttf8qvgU39DzpJZI9pNk-7" value="wayland 协议栈(wayland-x-protocol.x)" style="rounded=0;whiteSpace=wrap;html=1;fillColor=#e1d5e7;strokeColor=#9673a6;" parent="1" vertex="1">
          <mxGeometry x="65" y="291" width="490" height="40" as="geometry" />
        </mxCell>
        <mxCell id="Ttf8qvgU39DzpJZI9pNk-8" value="xwayland" style="rounded=0;whiteSpace=wrap;html=1;fillColor=#e1d5e7;strokeColor=#9673a6;" parent="1" vertex="1">
          <mxGeometry x="415" y="231" width="140" height="40" as="geometry" />
        </mxCell>
        <mxCell id="Ttf8qvgU39DzpJZI9pNk-9" value="" style="endArrow=classic;html=1;exitX=0.75;exitY=0;exitDx=0;exitDy=0;" parent="1" source="Ttf8qvgU39DzpJZI9pNk-8" edge="1">
          <mxGeometry width="50" height="50" relative="1" as="geometry">
            <mxPoint x="543" y="221" as="sourcePoint" />
            <mxPoint x="520" y="91" as="targetPoint" />
          </mxGeometry>
        </mxCell>
        <mxCell id="Ttf8qvgU39DzpJZI9pNk-11" value="request" style="text;html=1;strokeColor=none;fillColor=none;align=center;verticalAlign=middle;whiteSpace=wrap;rounded=0;" parent="1" vertex="1">
          <mxGeometry x="433" y="131" width="40" height="20" as="geometry" />
        </mxCell>
        <mxCell id="Ttf8qvgU39DzpJZI9pNk-12" value="event" style="text;html=1;strokeColor=none;fillColor=none;align=center;verticalAlign=middle;whiteSpace=wrap;rounded=0;" parent="1" vertex="1">
          <mxGeometry x="523" y="131" width="40" height="20" as="geometry" />
        </mxCell>
        <mxCell id="Ttf8qvgU39DzpJZI9pNk-29" value="request" style="text;html=1;strokeColor=none;fillColor=none;align=center;verticalAlign=middle;whiteSpace=wrap;rounded=0;" parent="1" vertex="1">
          <mxGeometry x="73" y="131" width="40" height="20" as="geometry" />
        </mxCell>
        <mxCell id="Ttf8qvgU39DzpJZI9pNk-30" value="event" style="text;html=1;strokeColor=none;fillColor=none;align=center;verticalAlign=middle;whiteSpace=wrap;rounded=0;" parent="1" vertex="1">
          <mxGeometry x="183" y="131" width="40" height="20" as="geometry" />
        </mxCell>
        <mxCell id="Ttf8qvgU39DzpJZI9pNk-31" value="" style="shape=folder;tabWidth=80;tabHeight=20;tabPosition=left;strokeWidth=1;html=1;whiteSpace=wrap;align=center;fontSize=12;fontStyle=1" parent="1" vertex="1">
          <mxGeometry x="23" y="421" width="567" height="70" as="geometry" />
        </mxCell>
        <mxCell id="Ttf8qvgU39DzpJZI9pNk-32" value="链路层" style="text;html=1;strokeColor=none;fillColor=none;align=center;verticalAlign=middle;whiteSpace=wrap;rounded=0;" parent="1" vertex="1">
          <mxGeometry x="43" y="421" width="40" height="20" as="geometry" />
        </mxCell>
        <mxCell id="Ttf8qvgU39DzpJZI9pNk-34" value="&lt;span style=&quot;color: rgb(85 , 85 , 85) ; font-family: , &amp;#34;sf ui text&amp;#34; , &amp;#34;arial&amp;#34; , &amp;#34;pingfang sc&amp;#34; , &amp;#34;hiragino sans gb&amp;#34; , &amp;#34;microsoft yahei&amp;#34; , &amp;#34;wenquanyi micro hei&amp;#34; , sans-serif , &amp;#34;simhei&amp;#34; , &amp;#34;simsun&amp;#34; ; font-size: 14px ; letter-spacing: 0.544px ; background-color: rgb(255 , 255 , 255)&quot;&gt;domain socket　（IPC)&lt;/span&gt;" style="text;html=1;strokeColor=none;fillColor=none;align=center;verticalAlign=middle;whiteSpace=wrap;rounded=0;" parent="1" vertex="1">
          <mxGeometry x="170" y="461" width="195.5" height="20" as="geometry" />
        </mxCell>
        <mxCell id="Ttf8qvgU39DzpJZI9pNk-35" value="" style="shape=folder;tabWidth=80;tabHeight=20;tabPosition=left;strokeWidth=1;html=1;whiteSpace=wrap;align=center;fontSize=12;fontStyle=1" parent="1" vertex="1">
          <mxGeometry x="23" y="551" width="567" height="140" as="geometry" />
        </mxCell>
        <mxCell id="Ttf8qvgU39DzpJZI9pNk-36" value="高性能合成器" style="text;html=1;strokeColor=none;fillColor=none;align=center;verticalAlign=middle;whiteSpace=wrap;rounded=0;" parent="1" vertex="1">
          <mxGeometry x="17" y="551" width="92" height="20" as="geometry" />
        </mxCell>
        <mxCell id="Ttf8qvgU39DzpJZI9pNk-38" value="同步通讯" style="text;html=1;strokeColor=none;fillColor=none;align=center;verticalAlign=middle;whiteSpace=wrap;rounded=0;" parent="1" vertex="1">
          <mxGeometry x="283" y="401" width="70" height="20" as="geometry" />
        </mxCell>
        <mxCell id="Ttf8qvgU39DzpJZI9pNk-39" value="同步通讯" style="text;html=1;strokeColor=none;fillColor=none;align=center;verticalAlign=middle;whiteSpace=wrap;rounded=0;" parent="1" vertex="1">
          <mxGeometry x="293" y="516" width="70" height="20" as="geometry" />
        </mxCell>
        <mxCell id="Ttf8qvgU39DzpJZI9pNk-41" value="" style="endArrow=classic;html=1;exitX=0.5;exitY=1;exitDx=0;exitDy=0;entryX=0.859;entryY=-0.05;entryDx=0;entryDy=0;entryPerimeter=0;" parent="1" source="Ttf8qvgU39DzpJZI9pNk-8" target="Ttf8qvgU39DzpJZI9pNk-7" edge="1">
          <mxGeometry width="50" height="50" relative="1" as="geometry">
            <mxPoint x="793" y="321" as="sourcePoint" />
            <mxPoint x="843" y="271" as="targetPoint" />
          </mxGeometry>
        </mxCell>
        <mxCell id="Ttf8qvgU39DzpJZI9pNk-43" value="epoll" style="rounded=1;whiteSpace=wrap;html=1;fillColor=#e1d5e7;strokeColor=#9673a6;" parent="1" vertex="1">
          <mxGeometry x="43" y="591" width="60" height="90" as="geometry" />
        </mxCell>
        <mxCell id="Ttf8qvgU39DzpJZI9pNk-46" value="" style="shape=folder;tabWidth=80;tabHeight=20;tabPosition=left;strokeWidth=1;html=1;whiteSpace=wrap;align=center;fontSize=12;fontStyle=1" parent="1" vertex="1">
          <mxGeometry x="23" y="740" width="567" height="80" as="geometry" />
        </mxCell>
        <mxCell id="Ttf8qvgU39DzpJZI9pNk-47" value="kernel" style="text;html=1;strokeColor=none;fillColor=none;align=center;verticalAlign=middle;whiteSpace=wrap;rounded=0;" parent="1" vertex="1">
          <mxGeometry x="28" y="740" width="70" height="20" as="geometry" />
        </mxCell>
        <mxCell id="Ttf8qvgU39DzpJZI9pNk-48" value="evdev" style="rounded=1;whiteSpace=wrap;html=1;" parent="1" vertex="1">
          <mxGeometry x="83" y="780" width="60" height="30" as="geometry" />
        </mxCell>
        <mxCell id="Ttf8qvgU39DzpJZI9pNk-49" value="kms&lt;span style=&quot;color: rgba(0 , 0 , 0 , 0) ; font-family: monospace ; font-size: 0px&quot;&gt;%3CmxGraphModel%3E%3Croot%3E%3CmxCell%20id%3D%220%22%2F%3E%3CmxCell%20id%3D%221%22%20parent%3D%220%22%2F%3E%3CmxCell%20id%3D%222%22%20value%3D%22evdev%22%20style%3D%22rounded%3D1%3BwhiteSpace%3Dwrap%3Bhtml%3D1%3B%22%20vertex%3D%221%22%20parent%3D%221%22%3E%3CmxGeometry%20x%3D%22240%22%20y%3D%22970%22%20width%3D%2260%22%20height%3D%2230%22%20as%3D%22geometry%22%2F%3E%3C%2FmxCell%3E%3C%2Froot%3E%3C%2FmxGraphModel%3E&lt;/span&gt;" style="rounded=1;whiteSpace=wrap;html=1;" parent="1" vertex="1">
          <mxGeometry x="183" y="780" width="60" height="30" as="geometry" />
        </mxCell>
        <mxCell id="Ttf8qvgU39DzpJZI9pNk-50" value="drm" style="rounded=1;whiteSpace=wrap;html=1;" parent="1" vertex="1">
          <mxGeometry x="258.5" y="780" width="60" height="30" as="geometry" />
        </mxCell>
        <mxCell id="Ttf8qvgU39DzpJZI9pNk-51" value="gem" style="rounded=1;whiteSpace=wrap;html=1;" parent="1" vertex="1">
          <mxGeometry x="333" y="780" width="60" height="30" as="geometry" />
        </mxCell>
        <mxCell id="Ttf8qvgU39DzpJZI9pNk-52" value="gpu" style="rounded=1;whiteSpace=wrap;html=1;" parent="1" vertex="1">
          <mxGeometry x="413" y="780" width="60" height="30" as="geometry" />
        </mxCell>
        <mxCell id="Ttf8qvgU39DzpJZI9pNk-58" value="" style="shape=flexArrow;endArrow=classic;startArrow=classic;html=1;" parent="1" edge="1">
          <mxGeometry width="100" height="100" relative="1" as="geometry">
            <mxPoint x="270" y="760" as="sourcePoint" />
            <mxPoint x="270" y="691" as="targetPoint" />
          </mxGeometry>
        </mxCell>
        <mxCell id="Ttf8qvgU39DzpJZI9pNk-59" style="edgeStyle=orthogonalEdgeStyle;rounded=0;orthogonalLoop=1;jettySize=auto;html=1;exitX=0.5;exitY=1;exitDx=0;exitDy=0;" parent="1" source="Ttf8qvgU39DzpJZI9pNk-38" target="Ttf8qvgU39DzpJZI9pNk-38" edge="1">
          <mxGeometry relative="1" as="geometry" />
        </mxCell>
        <mxCell id="Ttf8qvgU39DzpJZI9pNk-60" value="uwmcompositor" style="rounded=1;whiteSpace=wrap;html=1;fillColor=#e1d5e7;strokeColor=#9673a6;" parent="1" vertex="1">
          <mxGeometry x="113" y="661" width="387" height="20" as="geometry" />
        </mxCell>
        <mxCell id="Ttf8qvgU39DzpJZI9pNk-61" value="uwm window manager service&amp;nbsp;&lt;span style=&quot;color: rgba(0 , 0 , 0 , 0) ; font-family: monospace ; font-size: 0px&quot;&gt;%3CmxGraphModel%3E%3Croot%3E%3CmxCell%20id%3D%220%22%2F%3E%3CmxCell%20id%3D%221%22%20parent%3D%220%22%2F%3E%3CmxCell%20id%3D%222%22%20value%3D%22uwmcompositor%22%20style%3D%22rounded%3D1%3BwhiteSpace%3Dwrap%3Bhtml%3D1%3BfillColor%3D%23e1d5e7%3BstrokeColor%3D%239673a6%3B%22%20vertex%3D%221%22%20parent%3D%221%22%3E%3CmxGeometry%20x%3D%22270%22%20y%3D%22910%22%20width%3D%22480%22%20height%3D%2220%22%20as%3D%22geometry%22%2F%3E%3C%2FmxCell%3E%3C%2Froot%3E%3C%2FmxGraphModel%3E&lt;/span&gt;" style="rounded=1;whiteSpace=wrap;html=1;fillColor=#e1d5e7;strokeColor=#9673a6;" parent="1" vertex="1">
          <mxGeometry x="113" y="626" width="387" height="20" as="geometry" />
        </mxCell>
        <mxCell id="Ttf8qvgU39DzpJZI9pNk-62" value="wayland protocol process&amp;nbsp;" style="rounded=1;whiteSpace=wrap;html=1;fillColor=#e1d5e7;strokeColor=#9673a6;" parent="1" vertex="1">
          <mxGeometry x="113" y="591" width="387" height="20" as="geometry" />
        </mxCell>
        <mxCell id="P2LHYh_vZ_UbgHHOtx_8-2" value="" style="shape=flexArrow;endArrow=classic;startArrow=classic;html=1;" parent="1" edge="1">
          <mxGeometry width="100" height="100" relative="1" as="geometry">
            <mxPoint x="270" y="440" as="sourcePoint" />
            <mxPoint x="270" y="366" as="targetPoint" />
          </mxGeometry>
        </mxCell>
        <mxCell id="P2LHYh_vZ_UbgHHOtx_8-3" value="" style="shape=flexArrow;endArrow=classic;startArrow=classic;html=1;" parent="1" edge="1">
          <mxGeometry width="100" height="100" relative="1" as="geometry">
            <mxPoint x="270" y="570" as="sourcePoint" />
            <mxPoint x="270" y="491" as="targetPoint" />
          </mxGeometry>
        </mxCell>
      </root>
    </mxGraphModel>
  </diagram>
</mxfile>
